pred_float.py
31.387808799743652
float1.py
35.54150390625
float10.py
39.41655778884888
float11.py
40.21154236793518
float12.py
39.87379765510559
float13.py
39.92563462257385
float14.py
30.998270988464355
float15.py
35.86830925941467
float16.py
31.423707723617554
float2.py
42.72313642501831
float3.py
36.15683960914612
float4.py
35.79031467437744
float5.py
33.250166177749634
float6.py
31.460025787353516
float7.py
35.435513734817505
float8.py
35.39288020133972
float9.py
36.09303665161133
