pred_syn2.py
3.3635144233703613
large0.py
13.72673773765564
large1.py
14.226908922195435
large10.py
19.91452956199646
large11.py
22.132558822631836
large12.py
20.396950721740723
large13.py
17.829426527023315
large14.py
20.23140811920166
large15.py
21.141729593276978
large16.py
20.311693906784058
large17.py
14.067990064620972
large18.py
20.478466510772705
large19.py
7.866657972335815
large2.py
23.75381875038147
large20.py
8.987123966217041
large21.py
23.317296504974365
large22.py
15.028181552886963
large23.py
8.425004482269287
large24.py
20.015892028808594
large25.py
13.982890844345093
large26.py
20.530379056930542
large27.py
26.645937204360962
large28.py
6.415932893753052
large29.py
20.071839332580566
large3.py
17.79285764694214
large30.py
18.010531187057495
large31.py
8.197071552276611
large32.py
8.103126525878906
large33.py
4.800430774688721
large34.py
9.670514345169067
large35.py
13.795203685760498
large36.py
22.343620777130127
large37.py
13.876657009124756
large38.py
22.94715189933777
large39.py
14.1265127658844
large4.py
13.25006628036499
large40.py
5.800287246704102
large41.py
13.129736185073853
large42.py
11.369287967681885
large43.py
7.982311248779297
large44.py
13.942492246627808
large45.py
8.292980432510376
large46.py
13.760998487472534
large47.py
13.671122312545776
large48.py
20.021398544311523
large49.py
27.29020619392395
large5.py
26.929815769195557
large50.py
21.07305383682251
large51.py
4.770262718200684
large52.py
12.764665603637695
large53.py
8.204369306564331
large54.py
7.994205474853516
large55.py
8.17015790939331
large56.py
8.05535101890564
large57.py
20.06615161895752
large58.py
8.199968576431274
large59.py
20.468526601791382
large6.py
14.074681758880615
large60.py
7.58983588218689
large61.py
15.90310001373291
large62.py
18.780890941619873
large63.py
14.25160264968872
large64.py
16.669580459594727
large65.py
7.148259162902832
large66.py
19.40070152282715
large67.py
27.12734580039978
large68.py
28.188507795333862
large69.py
27.629185676574707
large7.py
27.596635341644287
large70.py
25.169767141342163
large71.py
9.786933660507202
large72.py
22.4647319316864
large73.py
14.7467679977417
large74.py
27.833473205566406
large75.py
21.44264793395996
large76.py
27.65543818473816
large77.py
26.384942054748535
large78.py
7.50339150428772
large79.py
26.91478419303894
large8.py
14.290592193603516
large80.py
20.991464853286743
large81.py
9.022806167602539
large82.py
12.355181455612183
large83.py
20.574668407440186
large84.py
20.143007278442383
large85.py
18.841559171676636
large86.py
13.559670686721802
large87.py
14.391404628753662
large88.py
15.021889448165894
large89.py
14.22865629196167
large9.py
20.753924131393433
large90.py
14.297402143478394
large91.py
16.17304229736328
large92.py
9.510093688964844
large93.py
12.333927154541016
large94.py
4.851997375488281
large95.py
7.849591255187988
large96.py
14.29447317123413
large97.py
8.280032396316528
large98.py
20.480822801589966
large99.py
18.06443214416504

