0.020408153533935547
0.024416446685791016
0.02235126495361328
0.020660877227783203
0.02089524269104004
0.021165132522583008
0.021306753158569336
0.020928382873535156
0.02129817008972168
0.021933317184448242
0.021697282791137695
0.021008968353271484
0.021068096160888672
0.02105259895324707
0.021907329559326172
0.021543264389038086
0.020717859268188477
0.020867109298706055
0.021279096603393555
0.021120071411132812
0.020767927169799805
0.021883249282836914
0.02095508575439453
0.020824909210205078
0.021192073822021484
0.021283626556396484
0.021388769149780273
0.021801471710205078
0.021454572677612305
0.020870685577392578
0.020946502685546875
0.021497011184692383
0.021463871002197266
0.020499706268310547
0.02053666114807129
0.02084493637084961
0.022513866424560547
0.021245718002319336
0.020701885223388672
0.02061009407043457
0.021082162857055664
0.02109694480895996
0.020842790603637695
0.020780324935913086
0.021682024002075195
0.020678281784057617
0.021938562393188477
0.021312475204467773
0.021214008331298828
0.021728515625
0.021668672561645508
0.020801305770874023
0.02044677734375
0.02086043357849121
0.0210421085357666
0.02079463005065918
0.02077484130859375
0.02062249183654785
0.022097349166870117
0.02152085304260254
0.021303415298461914
0.02140665054321289
0.021807432174682617
0.021665096282958984
0.02097916603088379
0.02124643325805664
0.021725893020629883
0.021445035934448242
0.021580219268798828
0.02130889892578125
0.02096104621887207
0.02184581756591797
0.021669626235961914
0.02123880386352539
0.021040916442871094
0.02165842056274414
0.022010326385498047
0.021648883819580078
0.019997358322143555
0.021790504455566406
0.02246570587158203
0.022344112396240234
0.02125072479248047
0.021538972854614258
0.022147655487060547
0.023726224899291992
0.02118372917175293
0.02125263214111328
0.02187371253967285
0.019970178604125977
0.021558523178100586
0.02123546600341797
0.021636486053466797
0.02150106430053711
0.021689176559448242
0.021838903427124023
0.021663904190063477
0.02172541618347168
0.022286653518676758
0.02166271209716797
0.02027106285095215
0.0217132568359375
0.022135019302368164
0.02251601219177246
0.02046942710876465
0.0203702449798584
0.02115917205810547
0.02132391929626465
0.02072906494140625
0.020428180694580078
0.02102351188659668
0.020032167434692383
0.020386219024658203
0.021366119384765625
0.021471500396728516
0.02104973793029785
0.02160167694091797
0.021845102310180664
0.02096104621887207
0.02079916000366211
0.021691322326660156
0.021573781967163086
0.02016758918762207
0.01993083953857422
0.02061939239501953
0.021114349365234375
0.0211336612701416
0.02071833610534668
0.02051997184753418
0.021161556243896484
0.02129220962524414
0.021312952041625977
0.021054744720458984
0.02183246612548828
0.019808053970336914
0.021727323532104492
0.021417856216430664
0.02117466926574707
0.023061275482177734
0.02204132080078125
0.021181821823120117
0.020734786987304688
0.021692991256713867
0.02178215980529785
0.021583080291748047
0.020666122436523438
0.021535396575927734
0.021910429000854492
0.02166128158569336
0.021941661834716797
0.021671056747436523
0.02228999137878418
0.022015094757080078
0.02138996124267578
0.02150869369506836
0.022034168243408203
0.020943403244018555
0.021945953369140625
0.02125263214111328
0.02136397361755371
0.021749019622802734
0.02171015739440918
0.02185511589050293
0.020791292190551758
0.021546125411987305
0.021564960479736328
0.021765947341918945
0.02104496955871582
0.02166128158569336
0.0221865177154541
0.022085905075073242
0.021703004837036133
0.021743059158325195
0.022154569625854492
0.02244257926940918
0.02107977867126465
0.02138066291809082
0.020999431610107422
0.020612716674804688
0.020411968231201172
0.020727157592773438
0.020827531814575195
0.021117687225341797
0.02079629898071289
0.020267963409423828
0.021122455596923828
0.02133011817932129
0.020355701446533203
0.02043938636779785
0.020748615264892578
0.020601987838745117
0.021245241165161133
0.02101421356201172
0.021266937255859375
0.02168560028076172
0.021811485290527344
0.021502256393432617
0.020951032638549805
0.021768808364868164
0.021596193313598633
0.020525217056274414
0.01987004280090332
0.021129131317138672
0.021366119384765625
0.02084636688232422
0.020773649215698242
0.021575212478637695
0.021306276321411133
0.021088361740112305
0.0211489200592041
0.02103900909423828
0.022320032119750977
0.020096540451049805
0.02160024642944336
0.02112269401550293
0.021114587783813477
0.021797657012939453
0.021460771560668945
0.020094871520996094
0.01993560791015625
0.020813941955566406
0.02061152458190918
0.019906282424926758
0.02091240882873535
0.020151138305664062
0.0207216739654541
0.02090167999267578
0.02058577537536621
0.020485639572143555
0.02095508575439453
0.02095341682434082
0.020305871963500977
0.020868301391601562
0.020839691162109375
0.020962953567504883
0.02136373519897461
0.019839048385620117
0.020695924758911133
0.020704269409179688
0.020699024200439453
0.020111799240112305
0.020040035247802734
0.02062201499938965
0.020897626876831055
0.020623207092285156
0.020394325256347656
0.020384550094604492
0.021097421646118164
0.020996809005737305
0.020863056182861328
0.02115011215209961
0.021182537078857422
0.021192073822021484
0.020581960678100586
0.020727872848510742
0.020966291427612305
