0.015243053436279297
0.01607680320739746
0.01607799530029297
0.016344785690307617
0.015674352645874023
0.024623632431030273
0.016019344329833984
0.01674509048461914
0.015259265899658203
0.02704477310180664
0.015514135360717773
0.021741390228271484
0.017806053161621094
0.015718936920166016
0.015184879302978516
0.018367767333984375
0.01967906951904297
0.01837158203125
0.018218040466308594
0.018808603286743164
0.01971268653869629
0.0157778263092041
0.01576828956604004
0.01580214500427246
0.018683195114135742
0.01854729652404785
0.017938613891601562
0.018080472946166992
0.016220569610595703
0.016186952590942383
0.01578211784362793
0.015798330307006836
0.01612234115600586
0.015572309494018555
0.01630711555480957
0.016261577606201172
0.01600503921508789
0.016492128372192383
0.016467809677124023
0.016021728515625
0.01603245735168457
0.016440629959106445
0.016328811645507812
0.015804767608642578
0.015219926834106445
0.015610456466674805
0.016515493392944336
0.016479969024658203
0.016120195388793945
0.015750885009765625
0.016145706176757812
0.01615595817565918
0.016741275787353516
0.016272783279418945
0.016721725463867188
0.01525735855102539
0.01646876335144043
0.016049861907958984
0.016099929809570312
0.01664257049560547
0.016592025756835938
0.015849828720092773
0.015835046768188477
0.015668153762817383
