pred_nbody.py
9.145235061645508
nbody1.py
29.402631759643555
nbody10.py
27.656972885131836
nbody100.py
41.565093755722046
nbody11.py
43.026811599731445
nbody12.py
28.69867181777954
nbody13.py
28.83403444290161
nbody14.py
11.753950595855713
nbody15.py
11.669361352920532
nbody16.py
11.939768314361572
nbody17.py
28.16037607192993
nbody18.py
28.47147011756897
nbody19.py
28.372129440307617
nbody2.py
28.548018217086792
nbody20.py
11.755970478057861
nbody21.py
11.817464828491211
nbody22.py
41.00659251213074
nbody23.py
41.04219698905945
nbody24.py
11.821515798568726
nbody25.py
27.523346185684204
nbody26.py
30.65682315826416
nbody27.py
47.11398100852966
nbody28.py
29.419594049453735
nbody29.py
29.62850284576416
nbody3.py
29.82040524482727
nbody30.py
12.910985946655273
nbody31.py
47.52349662780762
nbody32.py
13.02192211151123
nbody33.py
13.262285232543945
nbody34.py
13.477499723434448
nbody35.py
53.388166427612305
nbody36.py
57.88668751716614
nbody37.py
60.85697031021118
nbody38.py
52.20667886734009
nbody39.py
41.71969151496887
nbody4.py
80.55205464363098
nbody40.py
91.89663052558899
nbody41.py
58.66505265235901
nbody42.py
58.271268367767334
nbody43.py
50.93102025985718
nbody44.py
73.16075110435486
nbody45.py
56.83129620552063
nbody46.py
30.329421758651733
nbody47.py
47.72057557106018
nbody48.py
55.47847867012024
nbody49.py
49.44818735122681
nbody5.py
55.507137060165405
nbody50.py
85.28332757949829
nbody51.py
58.74646592140198
nbody52.py
50.14580988883972
nbody53.py
55.98584699630737
nbody54.py
44.411508560180664
nbody55.py
60.347251176834106
nbody56.py
90.76073384284973
nbody57.py
26.817026376724243
nbody58.py
50.47208881378174
nbody58.py~
54.382307052612305
nbody59.py
65.06161236763
nbody6.py
58.97896409034729
nbody60.py
51.9344801902771
nbody61.py
58.13253307342529
nbody62.py
73.98128700256348
nbody63.py
56.72064185142517
nbody64.py
47.79492235183716
nbody65.py
41.46891498565674
nbody66.py
35.97327899932861
nbody67.py
65.08899521827698
nbody68.py
52.58683800697327
nbody69.py
46.52350449562073
nbody7.py
48.85803246498108
nbody70.py
26.02600073814392
nbody71.py
25.689783096313477
nbody72.py
41.43263792991638
nbody73.py
44.0061891078949
nbody74.py
51.22779655456543
nbody75.py
63.072914600372314
nbody76.py
77.26985788345337
nbody77.py
36.36851954460144
nbody78.py
15.128498792648315
nbody79.py
24.361863374710083
nbody8.py
67.87393474578857
nbody80.py
69.3179452419281
nbody81.py
34.46308135986328
nbody82.py
37.95009732246399
nbody83.py
42.22231841087341
nbody84.py
31.75632643699646
nbody85.py
36.1762592792511
nbody86.py
31.802489519119263
nbody87.py
31.949209451675415
nbody88.py
31.40318775177002
nbody89.py
31.046106338500977
nbody9.py
31.006303548812866
nbody90.py
13.448285341262817
nbody91.py
40.02738165855408
nbody92.py
50.35101914405823
nbody93.py
31.422131538391113
nbody94.py
50.247212648391724
nbody95.py
33.69651246070862
nbody96.py
33.483402729034424
nbody97.py
32.916550636291504
nbody98.py
28.560097455978394
nbody99.py
12.467703580856323
